Rename columns from API results to work with gnomeR functions — rename_columns • oncokbR
…
rename_columns(df_to_check)

    Arguments

    df_to_check
a data frame for which to check colums

    Value

a renamed data frame

    Examples

rename_columns(df_to_check = oncokbR::blca_mutation)
#> # A tibble: 1,595 × 33
#>    hugo_symbol entrez_g…¹ uniqu…² uniqu…³ molec…⁴ sampl…⁵ patie…⁶ study…⁷ center
#>    <chr>            <int> <chr>   <chr>   <chr>   <chr>   <chr>   <chr>   <chr> 
#>  1 ABL1                25 UC0wMD… UC0wMD… blca_n… P-0005… P-0005… blca_n… MSKCC 
#>  2 ABL1                25 UC0wMD… UC0wMD… blca_n… P-0003… P-0003… blca_n… MSKCC 
#>  3 ABL1                25 UC0wMD… UC0wMD… blca_n… P-0003… P-0003… blca_n… MSKCC 
#>  4 ABL1                25 UC0wMD… UC0wMD… blca_n… P-0003… P-0003… blca_n… MSKCC 
#>  5 ABL1                25 UC0wMD… UC0wMD… blca_n… P-0003… P-0003… blca_n… MSKCC 
#>  6 ABL1                25 UC0wMD… UC0wMD… blca_n… P-0001… P-0001… blca_n… MSKCC 
#>  7 ABL1                25 UC0wMD… UC0wMD… blca_n… P-0006… P-0006… blca_n… MSKCC 
#>  8 PARP1              142 UC0wMD… UC0wMD… blca_n… P-0003… P-0003… blca_n… MSKCC 
#>  9 PARP1              142 UC0wMD… UC0wMD… blca_n… P-0003… P-0003… blca_n… MSKCC 
#> 10 AKT1               207 UC0wMD… UC0wMD… blca_n… P-0004… P-0004… blca_n… MSKCC 
#> # … with 1,585 more rows, 24 more variables: mutation_status <chr>,
#> #   validation_status <chr>, tumorAltCount <int>, tumorRefCount <int>,
#> #   normalAltCount <int>, normalRefCount <int>, start_position <int>,
#> #   end_position <int>, reference_allele <chr>, hgv_sp_short <chr>,
#> #   variant_classification <chr>, functionalImpactScore <chr>, fisValue <dbl>,
#> #   linkXvar <chr>, linkPdb <chr>, linkMsa <chr>, ncbi_build <chr>,
#> #   variant_type <chr>, keyword <chr>, chromosome <chr>, allele <chr>, …
…
